…
    ## Adding missing grouping variables: `strap_number`

``` r
boot_strap_weather
```

    ## # A tibble: 10,000 × 3
    ## # Groups:   strap_number [5,000]
    ##    strap_number log_b1x2 r_squared
    ##    <chr>           <dbl>     <dbl>
    ##  1 0001          0.0127      0.916
    ##  2 0001          0.0127      0.916
    ##  3 0002          0.0125      0.914
    ##  4 0002          0.0125      0.914
    ##  5 0003          0.0419      0.931
    ##  6 0003          0.0419      0.931
    ##  7 0004         -0.0110      0.905
    ##  8 0004         -0.0110      0.905
    ##  9 0005          0.00860     0.927
    ## 10 0005          0.00860     0.927
    ## # ℹ 9,990 more rows
…
